00 00 00 00 00 00 00 00
00 00 00 00 00 00 00 00
00 00 00 00 00 00 00 00
3a 7d 5a d4 63 29 8b 1e
f2 77 9e 08 c7 97 0a b2
9f ff 4e 63 2d a9 2b 19
00 00 00 00 00 00 00 00
8b 44 8e e1 52 46 05 3a
00 00 00 00 00 00 00 00
04 dc 5d 8b 18 4f fa ea
00 00 00 00 00 00 00 00
29 86 7e 28 9f c8 98 a8
00 00 00 00 00 00 00 00
9a 3b e3 19 92 01 ad 7e
00 00 00 00 00 00 00 00
e5 75 d9 f5 40 37 00 67
24 55 5c f1 99 dc ab 40
9c b3 a5 44 f5 30 c5 4b
00 00 00 00 00 00 00 00
1b bd 9a a7 3f ee 76 34
00 00 00 00 00 00 00 00
36 b4 b8 c2 f9 14 71 ac
7d 83 b2 ac 66 c6 6a 5b
be 41 57 a6 35 cc fa ff
